[
  {
    "_id": "61acd674d0f617034ff3fc4f",
    "username": "Freeman@chat.app",
    "password": 12345,
    "age": 57,
    "state": "offline",
    "firstname": "Brock",
    "lastname": "Hart",
    "gender": "male"
  },
  {
    "_id": "61acd6746095541d7929da67",
    "username": "Reynolds@chat.app",
    "password": 12345,
    "age": 42,
    "state": "online",
    "firstname": "Marietta",
    "lastname": "Avila",
    "gender": "female"
  },
  {
    "_id": "61acd6748db173a83cb7f29d",
    "username": "Carr@chat.app",
    "password": 12345,
    "age": 27,
    "state": "offline",
    "firstname": "Wall",
    "lastname": "Dean",
    "gender": "male"
  },
  {
    "_id": "61acd67438943bc3ae2a536f",
    "username": "Arlene@chat.app",
    "password": 12345,
    "age": 47,
    "state": "online",
    "firstname": "Chang",
    "lastname": "Jensen",
    "gender": "male"
  },
  {
    "_id": "61acd674466069dbb639d32d",
    "username": "Keith@chat.app",
    "password": 12345,
    "age": 37,
    "state": "offline",
    "firstname": "Jeri",
    "lastname": "Sutton",
    "gender": "female"
  }
]